Scraping static websites with rvest
…
starts <- seq(0, 2000, 200)

collect_pg <- function(x){
  read_html(paste0("https://www.ecstasydata.org/index.php?sort=DatePublishedU+desc&start=", x ,
                   "&max=200")) %>% 
  html_table(fill = T) %>% 
  .[[2]]
}

collect_pg(starts[1]) %>% 
  name_table(.) %>% 
  clean_table(.)

## # A tibble: 65 x 5
##    Name                     Substance Amounts Date_published Location  
##    <chr>                    <chr>       <dbl> <date>         <chr>     
##  1 Rolls Royce              MDMA         139. 2018-06-29     Zurich    
##  2 Grey Duracell            MDMA         250. 2018-06-24     Manchester
##  3 "Vogel\nBird"            MDMA         182. 2018-06-22     Zurich    
##  4 Tesla                    MDMA         194. 2018-06-22     Zurich    
##  5 "Pik Ass\nAce of Spades" MDMA         172. 2018-06-22     Zurich    
##  6 AMG                      MDMA         170. 2018-06-22     Zurich    
##  7 Silver                   MDMA         194. 2018-06-22     Zurich    
##  8 Philipp Plein            MDMA         149. 2018-06-20     Innsbruck 
##  9 "SS\nZwei S"             MDMA         133. 2018-06-20     Innsbruck 
## 10 Dom Pérignon             MDMA         136. 2018-06-20     Vienna    
## # ... with 55 more rows
…
